ApplicationMgr    SUCCESS
====================================================================================================================================
====================================================================================================================================
ApplicationMgr       INFO Application Manager Configured successfully
DetectorPersist...   INFO Added successfully Conversion service:XmlCnvSvc
DetectorDataSvc   SUCCESS Detector description database: git:/lhcb.xml
MagneticFieldGridReader INFO  Opened magnetic field file:  DBASE/FieldMap/vXrYpZ/cdf//field.v5r0.c1.down.cdf
MagneticFieldGridReader INFO  Opened magnetic field file:  DBASE/FieldMap/vXrYpZ/cdf//field.v5r0.c2.down.cdf
MagneticFieldGridReader INFO  Opened magnetic field file:  DBASE/FieldMap/vXrYpZ/cdf//field.v5r0.c3.down.cdf
MagneticFieldGridReader INFO  Opened magnetic field file:  DBASE/FieldMap/vXrYpZ/cdf//field.v5r0.c4.down.cdf
EventPersistenc...   INFO Added successfully Conversion service:RootCnvSvc
ApplicationMgr       INFO Application Manager Initialized successfully
ApplicationMgr       INFO Application Manager Started successfully
EventSelector     SUCCESS Reading Event record 1. Record number within stream 1: 1
EventSelector     SUCCESS Reading Event record 11. Record number within stream 1: 11
EventSelector     SUCCESS Reading Event record 21. Record number within stream 1: 21
EventSelector     SUCCESS Reading Event record 31. Record number within stream 1: 31
EventSelector     SUCCESS Reading Event record 41. Record number within stream 1: 41
EventSelector     SUCCESS Reading Event record 51. Record number within stream 1: 51
EventSelector     SUCCESS Reading Event record 61. Record number within stream 1: 61
EventSelector     SUCCESS Reading Event record 71. Record number within stream 1: 71
EventSelector     SUCCESS Reading Event record 81. Record number within stream 1: 81
EventSelector     SUCCESS Reading Event record 91. Record number within stream 1: 91
ApplicationMgr       INFO Application Manager Stopped successfully
EventLoopMgr         INFO Histograms converted successfully according to request.
ToolSvc              INFO Removing all tools created by ToolSvc
ApplicationMgr       INFO Application Manager Finalized successfully
ApplicationMgr       INFO Application Manager Terminated successfully
UnpackTrack          INFO Number of counters : 1
 |    Counter                                      |     #     |    sum     | mean/eff^* | rms/err^*  |     min     |     max     |
 | "# UnPackedData"                                |       100 |      50021 |     500.21 |     266.94 |      45.000 |      1409.0 |
