[
    {
        "component": "FTClusterMonitor",
        "entity": {
            "axis": [
                {
                    "maxValue": 7.5,
                    "minValue": -7.5,
                    "nBins": 15,
                    "title": ""
                }
            ],
            "bins": [
                0,
                2176,
                2092,
                2105,
                2066,
                2194,
                2198,
                2222,
                31666,
                7380,
                3188,
                2312,
                2163,
                2227,
                2253,
                2255,
                0
            ],
            "dimension": 1,
            "empty": false,
            "nEntries": 68497,
            "title": "Number of clusters per TAE;TAE;Clusters",
            "type": "histogram:Histogram:f"
        },
        "name": "nClustersPerTAE"
    },
    {
        "component": "FTClusterMonitor",
        "entity": {
            "axis": [
                {
                    "maxValue": 12287.5,
                    "minValue": -0.5,
                    "nBins": 192,
                    "title": ""
                }
            ],
            "bins": [
                0.0,
                332.0,
                353.0,
                375.0,
                355.0,
                348.0,
                341.0,
                332.0,
                317.0,
                813.0,
                692.0,
                685.0,
                712.0,
                601.0,
                1086.0,
                567.0,
                590.0,
                522.0,
                554.0,
                546.0,
                488.0,
                447.0,
                465.0,
                420.0,
                434.0,
                376.0,
                367.0,
                391.0,
                371.0,
                352.0,
                350.0,
                298.0,
                637.0,
                281.0,
                329.0,
                282.0,
                273.0,
                245.0,
                291.0,
                240.0,
                228.0,
                256.0,
                246.0,
                241.0,
                227.0,
                229.0,
                221.0,
                226.0,
                240.0,
                211.0,
                206.0,
                221.0,
                219.0,
                201.0,
                170.0,
                216.0,
                194.0,
                171.0,
                170.0,
                170.0,
                163.0,
                159.0,
                184.0,
                179.0,
                195.0,
                165.0,
                154.0,
                165.0,
                174.0,
                156.0,
                163.0,
                149.0,
                151.0,
                113.0,
                145.0,
                135.0,
                142.0,
                114.0,
                128.0,
                119.0,
                114.0,
                135.0,
                130.0,
                120.0,
                106.0,
                97.0,
                97.0,
                115.0,
                112.0,
                74.0,
                89.0,
                95.0,
                93.0,
                83.0,
                86.0,
                80.0,
                82.0,
                104.0,
                89.0,
                87.0,
                78.0,
                80.0,
                94.0,
                89.0,
                74.0,
                83.0,
                66.0,
                64.0,
                61.0,
                73.0,
                79.0,
                87.0,
                75.0,
                77.0,
                82.0,
                74.0,
                76.0,
                65.0,
                72.0,
                76.0,
                70.0,
                51.0,
                66.0,
                62.0,
                72.0,
                59.0,
                66.0,
                68.0,
                59.0,
                72.0,
                82.0,
                59.0,
                63.0,
                62.0,
                63.0,
                78.0,
                76.0,
                96.0,
                100.0,
                82.0,
                80.0,
                111.0,
                121.0,
                96.0,
                73.0,
                77.0,
                69.0,
                56.0,
                65.0,
                68.0,
                60.0,
                68.0,
                75.0,
                54.0,
                46.0,
                47.0,
                61.0,
                63.0,
                77.0,
                56.0,
                65.0,
                18.0,
                10.0,
                24.0,
                15.0,
                16.0,
                12.0,
                20.0,
                18.0,
                10.0,
                17.0,
                10.0,
                12.0,
                9.0,
                21.0,
                9.0,
                28.0,
                9.0,
                9.0,
                12.0,
                16.0,
                13.0,
                12.0,
                18.0,
                14.0,
                18.0,
                16.0,
                16.0,
                12.0,
                19.0,
                18.0,
                19.0,
                15.0,
                0.0
            ],
            "dimension": 1,
            "empty": false,
            "nEntries": 31666,
            "title": "clusters per pseudo channel;Pseudo channel;Clusters / (64 channels)",
            "type": "histogram:WeightedHistogram:f"
        },
        "name": "TAE/MainEvent/LiteClustersPerPseudoChannel_64"
    }
]